%YAML 1.1
%TAG !u! tag:unity3d.com,2011:
--- !u!114 &11400000
MonoBehaviour:
  m_ObjectHideFlags: 0
  m_CorrespondingSourceObject: {fileID: 0}
  m_PrefabInstance: {fileID: 0}
  m_PrefabAsset: {fileID: 0}
  m_GameObject: {fileID: 0}
  m_Enabled: 1
  m_EditorHideFlags: 0
  m_Script: {fileID: -1893448595, guid: a040fb66244a7f54289914d98ea4ef7d, type: 3}
  m_Name: Cami de flors
  m_EditorClassIdentifier: 
  _data:
    _json: '{"graph":{"variables":{"collection":{"$content":[],"$version":"A"},"$version":"A"},"controlInputDefinitions":[],"controlOutputDefinitions":[],"valueInputDefinitions":[],"valueOutputDefinitions":[],"title":null,"summary":null,"pan":{"x":2277.392,"y":236.2852},"zoom":0.8499999,"elements":[{"chainable":false,"member":{"name":"FindGameObjectWithTag","parameterTypes":["System.String"],"targetType":"UnityEngine.GameObject","targetTypeName":"UnityEngine.GameObject","$version":"A"},"defaultValues":{"%tag":{"$content":"Player","$type":"System.String"}},"position":{"x":997.0,"y":15.0},"guid":"1b813f63-4202-4101-9961-6d294962b9f5","$version":"A","$type":"Bolt.InvokeMember","$id":"9"},{"specifyFallback":false,"kind":"Object","defaultValues":{"name":{"$content":"Violeta","$type":"System.String"},"object":null},"position":{"x":2236.0,"y":311.0},"guid":"6ac35e91-6982-4384-a588-8536cd1ca80f","$version":"A","$type":"Bolt.GetVariable","$id":"12"},{"chainable":false,"member":{"name":"SetActive","parameterTypes":["System.Boolean"],"targetType":"UnityEngine.GameObject","targetTypeName":"UnityEngine.GameObject","$version":"A"},"defaultValues":{"target":null,"%value":{"$content":false,"$type":"System.Boolean"}},"position":{"x":2434.0,"y":168.0},"guid":"3dd55550-c6c9-447f-9429-eee0f44b559e","$version":"A","$type":"Bolt.InvokeMember","$id":"14"},{"chainable":false,"member":{"name":"FindGameObjectWithTag","parameterTypes":["System.String"],"targetType":"UnityEngine.GameObject","targetTypeName":"UnityEngine.GameObject","$version":"A"},"defaultValues":{"%tag":{"$content":"Cabell","$type":"System.String"}},"position":{"x":2070.0,"y":168.0},"guid":"87197871-3502-410c-90f9-6938bb792052","$version":"A","$type":"Bolt.InvokeMember","$id":"17"},{"specifyFallback":false,"kind":"Object","defaultValues":{"name":{"$content":"Cabell","$type":"System.String"},"object":null},"position":{"x":2452.0,"y":311.0},"guid":"69c3db14-113d-4f62-a55b-6d7cfbe5bfcc","$version":"A","$type":"Bolt.GetVariable","$id":"20"},{"chainable":false,"member":{"name":"SetActive","parameterTypes":["System.Boolean"],"targetType":"UnityEngine.GameObject","targetTypeName":"UnityEngine.GameObject","$version":"A"},"defaultValues":{"target":null,"%value":{"$content":true,"$type":"System.Boolean"}},"position":{"x":2696.0,"y":165.0},"guid":"80e02d6f-a087-4fb3-b83c-5170d6003554","$version":"A","$type":"Bolt.InvokeMember","$id":"22"},{"type":"System.String","value":{"$content":"falta
      el color","$type":"System.String"},"defaultValues":{},"position":{"x":-667.0,"y":303.0},"guid":"ba0809be-0731-43b7-b364-96b768db46d7","$version":"A","$type":"Bolt.Literal","$id":"25"},{"chainable":false,"member":{"name":"Play","parameterTypes":["System.String"],"targetType":"UnityEngine.Animator","targetTypeName":"UnityEngine.Animator","$version":"A"},"defaultValues":{"target":null,"%stateName":{"$content":"Action","$type":"System.String"}},"position":{"x":1342.0,"y":-31.0},"guid":"aa18287d-8e57-4165-9fce-dc8a6a9aa094","$version":"A","$type":"Bolt.InvokeMember","$id":"27"},{"type":"System.Boolean","value":{"$content":false,"$type":"System.Boolean"},"defaultValues":{},"position":{"x":-357.0,"y":245.0},"guid":"51ad09ff-e6ac-4876-9e60-2dc01ade489a","$version":"A","$type":"Bolt.Literal","$id":"30"},{"defaultValues":{},"position":{"x":620.0,"y":233.0},"guid":"bb580cfb-6c6b-48ed-abfc-7aac9c86d815","$version":"A","$type":"Bolt.Self","$id":"32"},{"specifyFallback":false,"kind":"Object","defaultValues":{"name":{"$content":"Cami
      color","$type":"System.String"},"object":null},"position":{"x":404.0,"y":171.0},"guid":"4c970ce6-e498-42e8-b540-89020730f317","$version":"A","$type":"Bolt.GetVariable","$id":"34"},{"specifyFallback":false,"kind":"Object","defaultValues":{"name":{"$content":"Te
      violeta","$type":"System.String"},"object":null},"position":{"x":-711.0,"y":151.0},"guid":"e9dd12a7-fa3f-45eb-b266-daa5c5f7f2bb","$version":"A","$type":"Bolt.GetVariable","$id":"36"},{"coroutine":false,"defaultValues":{"target":null},"position":{"x":-930.0,"y":35.0},"guid":"bcd00c4e-84c1-45a1-b0e2-257204f78d5a","$version":"A","$type":"Bolt.OnTriggerStay2D","$id":"38"},{"specifyFallback":false,"kind":"Object","defaultValues":{"name":{"$content":"Cami
      blanc i negre","$type":"System.String"},"object":null},"position":{"x":106.0,"y":179.0},"guid":"ee8db33e-50f1-4ae2-9a9c-29b965e05ddb","$version":"A","$type":"Bolt.GetVariable","$id":"40"},{"chainable":false,"member":{"name":"GetKey","parameterTypes":["UnityEngine.KeyCode"],"targetType":"UnityEngine.Input","targetTypeName":"UnityEngine.Input","$version":"A"},"defaultValues":{"%key":{"$content":"E","$type":"UnityEngine.KeyCode"}},"position":{"x":-9.0,"y":32.0},"guid":"8416d86b-ac4d-48a1-a8aa-305a0de6f2f1","$version":"A","$type":"Bolt.InvokeMember","$id":"42"},{"kind":"Object","defaultValues":{"name":{"$content":"Te
      violeta","$type":"System.String"},"object":null},"position":{"x":-309.0,"y":16.0},"guid":"18f41c8a-b4e8-469f-9e34-d40baefc27dc","$version":"A","$type":"Bolt.SetVariable","$id":"45"},{"kind":"Object","defaultValues":{"name":{"$content":"Te
      verd","$type":"System.String"},"object":null},"position":{"x":1750.0,"y":-42.0},"guid":"ba2fc87e-f1bd-490b-b8b3-28c330db0410","$version":"A","$type":"Bolt.SetVariable","$id":"47"},{"defaultValues":{},"position":{"x":-538.0,"y":44.0},"guid":"2dbec2fe-6359-48f2-8579-28ffa7d03c9c","$version":"A","$type":"Bolt.Branch","$id":"49"},{"chainable":false,"member":{"name":"SetActive","parameterTypes":["System.Boolean"],"targetType":"UnityEngine.GameObject","targetTypeName":"UnityEngine.GameObject","$version":"A"},"defaultValues":{"target":null,"%value":{"$content":true,"$type":"System.Boolean"}},"position":{"x":588.0,"y":37.0},"guid":"16ab9521-be09-4233-8549-54f38293b99d","$version":"A","$type":"Bolt.InvokeMember","$id":"51"},{"kind":"Object","defaultValues":{"name":{"$content":"No
      color","$type":"System.String"},"object":null},"position":{"x":1890.0,"y":174.0},"guid":"0935fdb8-5968-4908-9cc8-164413611b11","$version":"A","$type":"Bolt.SetVariable","$id":"54"},{"chainable":false,"member":{"name":"CompareTag","parameterTypes":["System.String"],"targetType":"UnityEngine.GameObject","targetTypeName":"UnityEngine.GameObject","$version":"A"},"defaultValues":{"target":null,"%tag":{"$content":"Player","$type":"System.String"}},"position":{"x":-138.0,"y":153.0},"guid":"b93cf7b2-9767-43a2-a0c3-717cffb5cea5","$version":"A","$type":"Bolt.InvokeMember","$id":"56"},{"type":"System.Boolean","value":{"$content":true,"$type":"System.Boolean"},"defaultValues":{},"position":{"x":1683.0,"y":308.0},"guid":"c71b11cd-ba61-49f6-9c89-d823f2044c7d","$version":"A","$type":"Bolt.Literal","$id":"59"},{"chainable":false,"member":{"name":"Destroy","parameterTypes":["UnityEngine.Object"],"targetType":"UnityEngine.Component","targetTypeName":"UnityEngine.Component","$version":"A"},"defaultValues":{"%obj":null},"position":{"x":804.0,"y":37.0},"guid":"d884ab9e-47df-4f51-98d3-4d5da2dcdf0b","$version":"A","$type":"Bolt.InvokeMember","$id":"61"},{"defaultValues":{},"position":{"x":168.0,"y":33.0},"guid":"99fca731-6b9e-4755-aa98-6e7bb08ee4fe","$version":"A","$type":"Bolt.Branch","$id":"64"},{"chainable":false,"member":{"name":"SetActive","parameterTypes":["System.Boolean"],"targetType":"UnityEngine.GameObject","targetTypeName":"UnityEngine.GameObject","$version":"A"},"defaultValues":{"target":null,"%value":{"$content":false,"$type":"System.Boolean"}},"position":{"x":392.0,"y":37.0},"guid":"2d28faab-fe84-411e-9202-a5e52661fb70","$version":"A","$type":"Bolt.InvokeMember","$id":"66"},{"type":"System.Boolean","value":{"$content":false,"$type":"System.Boolean"},"defaultValues":{},"position":{"x":1588.0,"y":83.0},"guid":"c0891ded-bead-47cc-ab25-98f1079da4b1","$version":"A","$type":"Bolt.Literal","$id":"69"},{"chainable":false,"member":{"name":"LogError","parameterTypes":["System.Object"],"targetType":"UnityEngine.Debug","targetTypeName":"UnityEngine.Debug","$version":"A"},"defaultValues":{},"position":{"x":-513.0,"y":204.0},"guid":"cf6005da-30d5-4520-a513-9bbd4f7d0e74","$version":"A","$type":"Bolt.InvokeMember","$id":"71"},{"sourceUnit":{"$ref":"54"},"sourceKey":"assigned","destinationUnit":{"$ref":"17"},"destinationKey":"enter","guid":"09672ce5-029d-4860-b196-52082dc7a3ff","$type":"Bolt.ControlConnection"},{"sourceUnit":{"$ref":"61"},"sourceKey":"exit","destinationUnit":{"$ref":"9"},"destinationKey":"enter","guid":"b3ba356e-19ef-4714-a2de-84431c24e396","$type":"Bolt.ControlConnection"},{"sourceUnit":{"$ref":"14"},"sourceKey":"exit","destinationUnit":{"$ref":"22"},"destinationKey":"enter","guid":"e3d36872-ba67-4f6b-a6d0-10db10562077","$type":"Bolt.ControlConnection"},{"sourceUnit":{"$ref":"47"},"sourceKey":"assigned","destinationUnit":{"$ref":"54"},"destinationKey":"assign","guid":"40fac0c7-dca1-499a-bac5-4d8cc880ab6b","$type":"Bolt.ControlConnection"},{"sourceUnit":{"$ref":"9"},"sourceKey":"exit","destinationUnit":{"$ref":"27"},"destinationKey":"enter","guid":"f313e7f7-4923-4f9a-b8d3-3874d6a13ac8","$type":"Bolt.ControlConnection"},{"sourceUnit":{"$ref":"27"},"sourceKey":"exit","destinationUnit":{"$ref":"47"},"destinationKey":"assign","guid":"37cdfbac-65b2-4d7a-b47d-d5ecd9fa5c3a","$type":"Bolt.ControlConnection"},{"sourceUnit":{"$ref":"38"},"sourceKey":"trigger","destinationUnit":{"$ref":"49"},"destinationKey":"enter","guid":"a5191497-25c0-4e08-bfda-f9c903dc16ce","$type":"Bolt.ControlConnection"},{"sourceUnit":{"$ref":"49"},"sourceKey":"ifTrue","destinationUnit":{"$ref":"45"},"destinationKey":"assign","guid":"b7bbd336-342a-431c-bcae-3e87799fdee6","$type":"Bolt.ControlConnection"},{"sourceUnit":{"$ref":"64"},"sourceKey":"ifTrue","destinationUnit":{"$ref":"66"},"destinationKey":"enter","guid":"163938e9-6066-4b66-8ab4-1dfe842c8b86","$type":"Bolt.ControlConnection"},{"sourceUnit":{"$ref":"56"},"sourceKey":"exit","destinationUnit":{"$ref":"42"},"destinationKey":"enter","guid":"bc22f320-1691-4a9d-91c9-cb7bc18218d6","$type":"Bolt.ControlConnection"},{"sourceUnit":{"$ref":"66"},"sourceKey":"exit","destinationUnit":{"$ref":"51"},"destinationKey":"enter","guid":"d5bf4747-cdb8-46c9-9321-3e20e0e4dab5","$type":"Bolt.ControlConnection"},{"sourceUnit":{"$ref":"51"},"sourceKey":"exit","destinationUnit":{"$ref":"61"},"destinationKey":"enter","guid":"45804c1a-d5de-46dc-967f-c08b45c5f7eb","$type":"Bolt.ControlConnection"},{"sourceUnit":{"$ref":"42"},"sourceKey":"exit","destinationUnit":{"$ref":"64"},"destinationKey":"enter","guid":"d5ce7fbd-a96a-4bc8-9023-9df3e069ba7c","$type":"Bolt.ControlConnection"},{"sourceUnit":{"$ref":"45"},"sourceKey":"assigned","destinationUnit":{"$ref":"42"},"destinationKey":"enter","guid":"34aeb1c4-d06d-4536-9631-97158cd96ce0","$type":"Bolt.ControlConnection"},{"sourceUnit":{"$ref":"49"},"sourceKey":"ifFalse","destinationUnit":{"$ref":"71"},"destinationKey":"enter","guid":"ae9faf2b-baf4-4a32-8c14-5c24a891b19e","$type":"Bolt.ControlConnection"},{"sourceUnit":{"$ref":"17"},"sourceKey":"exit","destinationUnit":{"$ref":"14"},"destinationKey":"enter","guid":"455e191e-8856-45f5-836f-e67321010491","$type":"Bolt.ControlConnection"},{"sourceUnit":{"$ref":"69"},"sourceKey":"output","destinationUnit":{"$ref":"47"},"destinationKey":"input","guid":"b0a33355-2326-4d17-918e-9a33778ea8ac","$type":"Bolt.ValueConnection"},{"sourceUnit":{"$ref":"40"},"sourceKey":"value","destinationUnit":{"$ref":"66"},"destinationKey":"target","guid":"dd3bd302-3629-41c3-941e-489a4df94f5a","$type":"Bolt.ValueConnection"},{"sourceUnit":{"$ref":"36"},"sourceKey":"value","destinationUnit":{"$ref":"49"},"destinationKey":"condition","guid":"eb6a6665-3d85-443b-89df-3ebc0b924aa6","$type":"Bolt.ValueConnection"},{"sourceUnit":{"$ref":"30"},"sourceKey":"output","destinationUnit":{"$ref":"45"},"destinationKey":"input","guid":"fef77d2c-4e40-4481-a65d-2003adc5c5cb","$type":"Bolt.ValueConnection"},{"sourceUnit":{"$ref":"32"},"sourceKey":"self","destinationUnit":{"$ref":"61"},"destinationKey":"%obj","guid":"ba2bd49c-c4fd-44cb-98e7-a95065ad6484","$type":"Bolt.ValueConnection"},{"sourceUnit":{"$ref":"34"},"sourceKey":"value","destinationUnit":{"$ref":"51"},"destinationKey":"target","guid":"488eb576-1bc7-4122-88eb-a0e6e40b22e0","$type":"Bolt.ValueConnection"},{"sourceUnit":{"$ref":"9"},"sourceKey":"result","destinationUnit":{"$ref":"54"},"destinationKey":"object","guid":"a9ef125d-6121-44cc-ad4e-7112f0f78ecb","$type":"Bolt.ValueConnection"},{"sourceUnit":{"$ref":"9"},"sourceKey":"result","destinationUnit":{"$ref":"47"},"destinationKey":"object","guid":"56b23e9e-8921-4a4c-a992-67924252b4f7","$type":"Bolt.ValueConnection"},{"sourceUnit":{"$ref":"38"},"sourceKey":"collider","destinationUnit":{"$ref":"36"},"destinationKey":"object","guid":"0d703347-a0b3-46b1-9261-f5e7f953c051","$type":"Bolt.ValueConnection"},{"sourceUnit":{"$ref":"9"},"sourceKey":"result","destinationUnit":{"$ref":"27"},"destinationKey":"target","guid":"fc38c1e6-587a-43ae-8b6b-f88612cab95b","$type":"Bolt.ValueConnection"},{"sourceUnit":{"$ref":"45"},"sourceKey":"output","destinationUnit":{"$ref":"56"},"destinationKey":"target","guid":"1ed46937-a8ad-440e-bd06-746e85cdd5a0","$type":"Bolt.ValueConnection"},{"sourceUnit":{"$ref":"59"},"sourceKey":"output","destinationUnit":{"$ref":"54"},"destinationKey":"input","guid":"ba463576-b7cf-4e3e-a361-de273a9679a2","$type":"Bolt.ValueConnection"},{"sourceUnit":{"$ref":"42"},"sourceKey":"result","destinationUnit":{"$ref":"64"},"destinationKey":"condition","guid":"b1397080-ac58-49a3-973a-82f911497f27","$type":"Bolt.ValueConnection"},{"sourceUnit":{"$ref":"25"},"sourceKey":"output","destinationUnit":{"$ref":"71"},"destinationKey":"%message","guid":"d7d9a8d6-3f0c-40c1-84a0-65c31ff70cf7","$type":"Bolt.ValueConnection"},{"sourceUnit":{"$ref":"20"},"sourceKey":"value","destinationUnit":{"$ref":"22"},"destinationKey":"target","guid":"69f2a269-e59c-494d-8124-e1ebd92b1216","$type":"Bolt.ValueConnection"},{"sourceUnit":{"$ref":"12"},"sourceKey":"value","destinationUnit":{"$ref":"14"},"destinationKey":"target","guid":"590cdfad-5b78-44f0-b893-02f0e77d529a","$type":"Bolt.ValueConnection"}],"$version":"A"}}'
    _objectReferences: []
