%YAML 1.1
%TAG !u! tag:unity3d.com,2011:
--- !u!114 &11400000
MonoBehaviour:
  m_ObjectHideFlags: 0
  m_CorrespondingSourceObject: {fileID: 0}
  m_PrefabInstance: {fileID: 0}
  m_PrefabAsset: {fileID: 0}
  m_GameObject: {fileID: 0}
  m_Enabled: 1
  m_EditorHideFlags: 0
  m_Script: {fileID: -1893448595, guid: a040fb66244a7f54289914d98ea4ef7d, type: 3}
  m_Name: EscenaJoc
  m_EditorClassIdentifier: 
  _data:
    _json: '{"graph":{"variables":{"collection":{"$content":[],"$version":"A"},"$version":"A"},"controlInputDefinitions":[],"controlOutputDefinitions":[],"valueInputDefinitions":[],"valueOutputDefinitions":[],"title":null,"summary":null,"pan":{"x":134.3285,"y":-6.655457},"zoom":0.9,"elements":[{"coroutine":false,"defaultValues":{"button":{"$content":"Left","$type":"Ludiq.MouseButton"},"action":{"$content":"Down","$type":"Ludiq.PressState"}},"position":{"x":-167.0,"y":-102.0},"guid":"5357bfb2-91b9-4766-89b4-534705a303c2","$version":"A","$type":"Bolt.OnMouseInput","$id":"9"},{"chainable":false,"member":{"name":"LoadScene","parameterTypes":["System.Int32"],"targetType":"UnityEngine.SceneManagement.SceneManager","targetTypeName":"UnityEngine.SceneManagement.SceneManager","$version":"A"},"defaultValues":{"%sceneBuildIndex":{"$content":1,"$type":"System.Int32"}},"position":{"x":128.0,"y":-110.0},"guid":"b29aa9b9-021a-4d3a-a738-9cacba7b626e","$version":"A","$type":"Bolt.InvokeMember","$id":"11"},{"sourceUnit":{"$ref":"9"},"sourceKey":"trigger","destinationUnit":{"$ref":"11"},"destinationKey":"enter","guid":"0d6a03f2-50e0-44b1-86d1-2aa36d4530d7","$type":"Bolt.ControlConnection"}],"$version":"A"}}'
    _objectReferences: []
