%YAML 1.1
%TAG !u! tag:unity3d.com,2011:
--- !u!114 &11400000
MonoBehaviour:
  m_ObjectHideFlags: 0
  m_CorrespondingSourceObject: {fileID: 0}
  m_PrefabInstance: {fileID: 0}
  m_PrefabAsset: {fileID: 0}
  m_GameObject: {fileID: 0}
  m_Enabled: 1
  m_EditorHideFlags: 0
  m_Script: {fileID: -1893448595, guid: a040fb66244a7f54289914d98ea4ef7d, type: 3}
  m_Name: FullesCollider
  m_EditorClassIdentifier: 
  _data:
    _json: '{"graph":{"variables":{"collection":{"$content":[],"$version":"A"},"$version":"A"},"controlInputDefinitions":[],"controlOutputDefinitions":[],"valueInputDefinitions":[],"valueOutputDefinitions":[],"title":null,"summary":null,"pan":{"x":429.2881,"y":-278.4668},"zoom":0.8,"elements":[{"defaultValues":{},"position":{"x":272.0,"y":-227.0},"guid":"43336e67-8c73-4059-9601-9cef4e8f272b","$version":"A","$type":"Bolt.Self","$id":"9"},{"chainable":false,"member":{"name":"Play","parameterTypes":[],"targetType":"UnityEngine.ParticleSystem","targetTypeName":"UnityEngine.ParticleSystem","$version":"A"},"defaultValues":{"target":null},"position":{"x":218.0,"y":-366.0},"guid":"9cf360f5-320a-42ee-a14a-ee0c1d698967","$version":"A","$type":"Bolt.InvokeMember","$id":"11"},{"chainable":false,"member":{"name":"FindGameObjectWithTag","parameterTypes":["System.String"],"targetType":"UnityEngine.GameObject","targetTypeName":"UnityEngine.GameObject","$version":"A"},"defaultValues":{"%tag":{"$content":"Fulles","$type":"System.String"}},"position":{"x":-94.0,"y":-372.0},"guid":"568e115e-2b68-492e-9236-af586f1b9ca6","$version":"A","$type":"Bolt.InvokeMember","$id":"14"},{"coroutine":false,"defaultValues":{"target":null},"position":{"x":-394.0,"y":-366.0},"guid":"0c555041-4734-4592-830f-c50d51055fda","$version":"A","$type":"Bolt.OnTriggerEnter2D","$id":"17"},{"chainable":false,"member":{"name":"GetComponent","parameterTypes":["System.Type"],"targetType":"UnityEngine.Component","targetTypeName":"UnityEngine.Component","$version":"A"},"defaultValues":{"target":null,"%type":{"$content":"UnityEngine.SpriteRenderer","$type":"System.RuntimeType"}},"position":{"x":646.0,"y":-365.0},"guid":"67e75167-8e80-4131-be74-a7dbc6711eb3","$version":"A","$type":"Bolt.InvokeMember","$id":"19"},{"chainable":false,"member":{"name":"sprite","parameterTypes":null,"targetType":"UnityEngine.SpriteRenderer","targetTypeName":"UnityEngine.SpriteRenderer","$version":"A"},"defaultValues":{"target":null,"input":{"$content":0,"$type":"UnityEngine.Object"}},"position":{"x":1049.0,"y":-364.0},"guid":"a6f815da-afd6-493a-984d-bbcb4c7b005a","$version":"A","$type":"Bolt.SetMember","$id":"22"},{"chainable":false,"member":{"name":"Play","parameterTypes":[],"targetType":"UnityEngine.AudioSource","targetTypeName":"UnityEngine.AudioSource","$version":"A"},"defaultValues":{"target":null},"position":{"x":435.0,"y":-365.0},"guid":"4d255f47-8634-4de9-a0ca-0028ce615fba","$version":"A","$type":"Bolt.InvokeMember","$id":"25"},{"sourceUnit":{"$ref":"14"},"sourceKey":"exit","destinationUnit":{"$ref":"11"},"destinationKey":"enter","guid":"a5de3706-6224-4ae1-b677-a0eddcd984f8","$type":"Bolt.ControlConnection"},{"sourceUnit":{"$ref":"17"},"sourceKey":"trigger","destinationUnit":{"$ref":"14"},"destinationKey":"enter","guid":"84cf6f38-3761-4a52-b5c8-7afc64451060","$type":"Bolt.ControlConnection"},{"sourceUnit":{"$ref":"19"},"sourceKey":"exit","destinationUnit":{"$ref":"22"},"destinationKey":"assign","guid":"f3de4bee-7b16-4798-b0a1-f1a0686183f7","$type":"Bolt.ControlConnection"},{"sourceUnit":{"$ref":"11"},"sourceKey":"exit","destinationUnit":{"$ref":"25"},"destinationKey":"enter","guid":"0c7ebc47-a72f-4a9e-8de0-3d589fb6021c","$type":"Bolt.ControlConnection"},{"sourceUnit":{"$ref":"25"},"sourceKey":"exit","destinationUnit":{"$ref":"19"},"destinationKey":"enter","guid":"8a01c878-8e50-45ec-a768-e934f5e36602","$type":"Bolt.ControlConnection"},{"sourceUnit":{"$ref":"14"},"sourceKey":"result","destinationUnit":{"$ref":"11"},"destinationKey":"target","guid":"8ee0ce8b-4026-4480-bd07-e50bc5157f1a","$type":"Bolt.ValueConnection"},{"sourceUnit":{"$ref":"9"},"sourceKey":"self","destinationUnit":{"$ref":"19"},"destinationKey":"target","guid":"da1b9e96-37b1-40fd-9b8b-280f7e3d7fc0","$type":"Bolt.ValueConnection"},{"sourceUnit":{"$ref":"19"},"sourceKey":"result","destinationUnit":{"$ref":"22"},"destinationKey":"target","guid":"eb019dda-dea3-42e4-ae82-22769fcb0bd6","$type":"Bolt.ValueConnection"}],"$version":"A"}}'
    _objectReferences:
    - {fileID: 21300016, guid: b001b8c8f32fa5c4d9299f2f92235373, type: 3}
