%YAML 1.1
%TAG !u! tag:unity3d.com,2011:
--- !u!114 &11400000
MonoBehaviour:
  m_ObjectHideFlags: 0
  m_CorrespondingSourceObject: {fileID: 0}
  m_PrefabInstance: {fileID: 0}
  m_PrefabAsset: {fileID: 0}
  m_GameObject: {fileID: 0}
  m_Enabled: 1
  m_EditorHideFlags: 0
  m_Script: {fileID: -1893448595, guid: a040fb66244a7f54289914d98ea4ef7d, type: 3}
  m_Name: punxes
  m_EditorClassIdentifier: 
  _data:
    _json: '{"graph":{"variables":{"collection":{"$content":[],"$version":"A"},"$version":"A"},"controlInputDefinitions":[],"controlOutputDefinitions":[],"valueInputDefinitions":[],"valueOutputDefinitions":[],"title":null,"summary":null,"pan":{"x":285.2524,"y":-145.8044},"zoom":0.8,"elements":[{"argumentCount":0,"defaultValues":{"name":{"$content":"Death","$type":"System.String"},"target":null},"position":{"x":-70.0,"y":-232.0},"guid":"47bb68a8-1051-49bd-a5ff-366389316bab","$version":"A","$type":"Bolt.TriggerCustomEvent","$id":"9"},{"chainable":false,"member":{"name":"Play","parameterTypes":["System.String"],"targetType":"UnityEngine.Animator","targetTypeName":"UnityEngine.Animator","$version":"A"},"defaultValues":{"target":null,"%stateName":{"$content":"Death","$type":"System.String"}},"position":{"x":368.0,"y":-175.0},"guid":"a24c9e16-e465-45b7-b616-8835330912e8","$version":"A","$type":"Bolt.InvokeMember","$id":"11"},{"chainable":false,"member":{"name":"FindGameObjectWithTag","parameterTypes":["System.String"],"targetType":"UnityEngine.GameObject","targetTypeName":"UnityEngine.GameObject","$version":"A"},"defaultValues":{"%tag":{"$content":"Player","$type":"System.String"}},"position":{"x":121.0,"y":-219.0},"guid":"433e7ff2-8eab-4c45-8b7b-de4bb1efde32","$version":"A","$type":"Bolt.InvokeMember","$id":"14"},{"nest":{"source":"Macro","macro":0,"embed":null},"defaultValues":{"tag":{"$content":"Player","$type":"System.String"}},"position":{"x":-306.0,"y":-223.0},"guid":"e1c33742-1c9b-43e2-84b0-270971ba8759","$version":"A","$type":"Bolt.SuperUnit","$id":"17"},{"chainable":false,"member":{"name":"LoadScene","parameterTypes":["System.Int32","UnityEngine.SceneManagement.LoadSceneMode"],"targetType":"UnityEngine.SceneManagement.SceneManager","targetTypeName":"UnityEngine.SceneManagement.SceneManager","$version":"A"},"defaultValues":{"%sceneBuildIndex":{"$content":2,"$type":"System.Int32"},"%mode":{"$content":"Single","$type":"UnityEngine.SceneManagement.LoadSceneMode"}},"position":{"x":586.0,"y":-181.0},"guid":"78dc7c1f-4d6f-4b24-90b3-c7950580facf","$version":"A","$type":"Bolt.InvokeMember","$id":"20"},{"sourceUnit":{"$ref":"9"},"sourceKey":"exit","destinationUnit":{"$ref":"14"},"destinationKey":"enter","guid":"6b2b71bc-3183-49d5-9c64-2cc5cc05cf53","$type":"Bolt.ControlConnection"},{"sourceUnit":{"$ref":"17"},"sourceKey":"target","destinationUnit":{"$ref":"9"},"destinationKey":"enter","guid":"755ca561-be69-4cf8-8f0b-7c6a0676a61b","$type":"Bolt.ControlConnection"},{"sourceUnit":{"$ref":"14"},"sourceKey":"exit","destinationUnit":{"$ref":"11"},"destinationKey":"enter","guid":"d9ca1e22-f801-4300-9611-0b3e51a7e19d","$type":"Bolt.ControlConnection"},{"sourceUnit":{"$ref":"11"},"sourceKey":"exit","destinationUnit":{"$ref":"20"},"destinationKey":"enter","guid":"aa3bcb17-b831-4d48-a917-47b692d5948f","$type":"Bolt.ControlConnection"},{"sourceUnit":{"$ref":"14"},"sourceKey":"result","destinationUnit":{"$ref":"11"},"destinationKey":"target","guid":"4e46e4b2-8036-41a9-8972-44532a90afc2","$type":"Bolt.ValueConnection"},{"sourceUnit":{"$ref":"17"},"sourceKey":"Object","destinationUnit":{"$ref":"9"},"destinationKey":"target","guid":"e0e18742-f577-4bd8-8365-2ce3b1fe67a4","$type":"Bolt.ValueConnection"}],"$version":"A"}}'
    _objectReferences:
    - {fileID: 11400000, guid: 4274558a4996daf44a76b8c88de302bb, type: 2}
