%YAML 1.1
%TAG !u! tag:unity3d.com,2011:
--- !u!114 &11400000
MonoBehaviour:
  m_ObjectHideFlags: 0
  m_CorrespondingSourceObject: {fileID: 0}
  m_PrefabInstance: {fileID: 0}
  m_PrefabAsset: {fileID: 0}
  m_GameObject: {fileID: 0}
  m_Enabled: 1
  m_EditorHideFlags: 0
  m_Script: {fileID: 1083378141, guid: dcd2196c4e9166f499793f2007fcda35, type: 3}
  m_Name: EnemyAi
  m_EditorClassIdentifier: 
  _data:
    _json: '{"graph":{"title":null,"summary":null,"pan":{"x":-34.0,"y":35.0},"zoom":1.0,"elements":[{"nest":{"source":"Embed","macro":null,"embed":{"title":"Alive","summary":null,"pan":{"x":-57.60351,"y":34.12342},"zoom":1.0,"elements":[{"nest":{"source":"Embed","macro":null,"embed":{"title":"Patrol","summary":"","pan":{"x":273.0,"y":266.5},"zoom":1.0,"elements":[{"nest":{"source":"Embed","macro":null,"embed":{"variables":{"collection":{"$content":[],"$version":"A"},"$version":"A"},"controlInputDefinitions":[],"controlOutputDefinitions":[],"valueInputDefinitions":[],"valueOutputDefinitions":[],"title":"Idle","summary":null,"pan":{"x":-45.1,"y":67.0},"zoom":1.0,"elements":[{"nest":{"source":"Macro","macro":0,"embed":null},"defaultValues":{"direction":{"$content":0.0,"$type":"System.Single"}},"position":{"x":-134.0,"y":23.0},"guid":"2c515305-7b94-4363-89e9-d1c2a5c76b2b","$version":"A","$type":"Bolt.SuperUnit"}],"$version":"A"}},"isStart":true,"position":{"x":-86.0,"y":-15.0},"width":170.0,"guid":"773f86ff-31a6-45b8-9627-04df3d8d7d4c","$version":"A","$type":"Bolt.FlowState","$id":"11"},{"nest":{"source":"Embed","macro":null,"embed":{"variables":{"collection":{"$content":[],"$version":"A"},"$version":"A"},"controlInputDefinitions":[],"controlOutputDefinitions":[],"valueInputDefinitions":[],"valueOutputDefinitions":[],"title":"Walk
      Left","summary":null,"pan":{"x":-328.1,"y":66.0},"zoom":1.0,"elements":[{"nest":{"source":"Macro","macro":1,"embed":null},"defaultValues":{"direction":{"$content":-1.0,"$type":"System.Single"}},"position":{"x":-341.0,"y":-3.0},"guid":"7916b6ba-20cc-4b70-99d4-751cc5ce90a6","$version":"A","$type":"Bolt.SuperUnit"}],"$version":"A"}},"isStart":false,"position":{"x":-343.0,"y":254.0},"width":170.0,"guid":"ea1a53bb-e707-484b-8682-6dbfd716558b","$version":"A","$type":"Bolt.FlowState","$id":"24"},{"nest":{"source":"Embed","macro":null,"embed":{"variables":{"collection":{"$content":[],"$version":"A"},"$version":"A"},"controlInputDefinitions":[],"controlOutputDefinitions":[],"valueInputDefinitions":[],"valueOutputDefinitions":[],"title":"Walk
      Right","summary":null,"pan":{"x":-46.73731,"y":-12.30912},"zoom":1.0,"elements":[{"nest":{"source":"Macro","macro":2,"embed":null},"defaultValues":{"direction":{"$content":1.0,"$type":"System.Single"}},"position":{"x":-158.0,"y":-47.0},"guid":"1ee1e385-27db-4d88-aa41-029ecb535990","$version":"A","$type":"Bolt.SuperUnit"}],"$version":"A"}},"isStart":false,"position":{"x":188.0,"y":251.0},"width":170.0,"guid":"1b35ade6-df12-4f42-84bb-9ec5a13eeddb","$version":"A","$type":"Bolt.FlowState","$id":"37"},{"nest":{"source":"Macro","macro":3,"embed":null},"source":{"$ref":"24"},"destination":{"$ref":"11"},"guid":"d4ea5cc5-cce2-456f-8b63-cea9028f3296","$version":"A","$type":"Bolt.FlowStateTransition"},{"nest":{"source":"Macro","macro":4,"embed":null},"source":{"$ref":"11"},"destination":{"$ref":"24"},"guid":"4e170344-ab41-4531-98f0-7fc710f7346f","$version":"A","$type":"Bolt.FlowStateTransition"},{"nest":{"source":"Macro","macro":5,"embed":null},"source":{"$ref":"11"},"destination":{"$ref":"37"},"guid":"d13ad1f8-2a61-4577-a757-35754a13553a","$version":"A","$type":"Bolt.FlowStateTransition"},{"nest":{"source":"Macro","macro":6,"embed":null},"source":{"$ref":"37"},"destination":{"$ref":"11"},"guid":"994427d5-219f-45d2-9489-e15c848b965b","$version":"A","$type":"Bolt.FlowStateTransition"},{"nest":{"source":"Macro","macro":7,"embed":null},"source":{"$ref":"24"},"destination":{"$ref":"37"},"guid":"0de7d077-cd8c-49d7-908a-b18ba583340f","$version":"A","$type":"Bolt.FlowStateTransition"},{"nest":{"source":"Macro","macro":8,"embed":null},"source":{"$ref":"37"},"destination":{"$ref":"24"},"guid":"26e3fc8d-dc16-4c69-86bf-efe01951ee46","$version":"A","$type":"Bolt.FlowStateTransition"},{"nest":{"source":"Macro","macro":9,"embed":null},"source":{"$ref":"24"},"destination":{"$ref":"37"},"guid":"977d0ab6-9dc4-4e01-9de7-f6569bb0687c","$version":"A","$type":"Bolt.FlowStateTransition"},{"nest":{"source":"Macro","macro":10,"embed":null},"source":{"$ref":"37"},"destination":{"$ref":"24"},"guid":"bdafd3af-1027-47e3-8255-968db7504153","$version":"A","$type":"Bolt.FlowStateTransition"}],"$version":"A"}},"isStart":true,"position":{"x":-111.0,"y":-75.0},"width":170.0,"guid":"16bb5960-6b05-493d-bf88-cb6ee01ea8f8","$type":"Bolt.SuperState","$id":"7"},{"nest":{"source":"Embed","macro":null,"embed":{"variables":{"collection":{"$content":[],"$version":"A"},"$version":"A"},"controlInputDefinitions":[],"controlOutputDefinitions":[],"valueInputDefinitions":[],"valueOutputDefinitions":[],"title":"Damage","summary":null,"pan":{"x":80.38174,"y":186.4541},"zoom":0.3967391,"elements":[{"nest":{"source":"Macro","macro":11,"embed":null},"defaultValues":{"tag":{"$content":"Player","$type":"System.String"}},"position":{"x":-149.0,"y":85.0},"guid":"de9daef0-8972-4c36-9351-2a90233b2db9","$version":"A","$type":"Bolt.SuperUnit","$id":"76"},{"argumentCount":0,"defaultValues":{"name":{"$content":"Damage","$type":"System.String"},"target":null},"position":{"x":89.0,"y":81.0},"guid":"9fe87bc9-c244-4a66-ad60-aa52588f80e2","$version":"A","$type":"Bolt.TriggerCustomEvent","$id":"79"},{"sourceUnit":{"$ref":"76"},"sourceKey":"target","destinationUnit":{"$ref":"79"},"destinationKey":"enter","guid":"504a60e7-ea2a-4137-9491-baa09cb9395e","$type":"Bolt.ControlConnection"},{"sourceUnit":{"$ref":"76"},"sourceKey":"Object","destinationUnit":{"$ref":"79"},"destinationKey":"target","guid":"a57bb09c-b421-45d9-a0db-71e6a03e62c1","$type":"Bolt.ValueConnection"}],"$version":"A"}},"isStart":true,"position":{"x":128.0,"y":1.0},"width":170.0,"guid":"404db48c-1428-42a5-a17f-d94810b844cd","$version":"A","$type":"Bolt.FlowState"},{"nest":{"source":"Embed","macro":null,"embed":{"variables":{"collection":{"$content":[],"$version":"A"},"$version":"A"},"controlInputDefinitions":[],"controlOutputDefinitions":[],"valueInputDefinitions":[],"valueOutputDefinitions":[],"title":"Chase","summary":null,"pan":{"x":380.468,"y":-43.01474},"zoom":1.0,"elements":[{"specifyFallback":false,"kind":"Application","defaultValues":{"name":{"$content":"Player","$type":"System.String"}},"position":{"x":-98.0,"y":-156.0},"guid":"d16f1ddf-2db3-4e2c-873d-edcbad7948d4","$version":"A","$type":"Bolt.GetVariable","$id":"93"},{"member":{"name":"position","parameterTypes":null,"targetType":"UnityEngine.Transform","targetTypeName":"UnityEngine.Transform","$version":"A"},"defaultValues":{"target":null},"position":{"x":82.0,"y":-154.0},"guid":"ab8f6310-68e1-40f0-8c55-3138b75f21a0","$version":"A","$type":"Bolt.GetMember","$id":"95"},{"member":{"name":"position","parameterTypes":null,"targetType":"UnityEngine.Transform","targetTypeName":"UnityEngine.Transform","$version":"A"},"defaultValues":{"target":null},"position":{"x":77.0,"y":-51.0},"guid":"4abe88fc-9445-419b-9a61-16c2a0bd6486","$version":"A","$type":"Bolt.GetMember","$id":"98"},{"defaultValues":{"minuend":{"x":0.0,"y":0.0,"z":0.0,"$type":"UnityEngine.Vector3"},"subtrahend":{"x":0.0,"y":0.0,"z":0.0,"$type":"UnityEngine.Vector3"}},"position":{"x":271.0,"y":-119.0},"guid":"53209f4d-eb75-4816-bc67-259e004ab258","$version":"A","$type":"Bolt.Vector3Subtract","$id":"101"},{"member":{"name":"x","parameterTypes":null,"targetType":"UnityEngine.Vector2","targetTypeName":"UnityEngine.Vector2","$version":"A"},"defaultValues":{"target":{"x":0.0,"y":0.0,"$type":"UnityEngine.Vector2"}},"position":{"x":437.0,"y":-119.0},"guid":"09ac3051-27ac-44f8-be5c-03672c917b09","$version":"A","$type":"Bolt.GetMember","$id":"103"},{"nest":{"source":"Macro","macro":12,"embed":null},"defaultValues":{"direction":{"$content":0.0,"$type":"System.Single"}},"position":{"x":760.0,"y":-119.0},"guid":"179f4eb7-35bd-4749-bd90-3e666f9fd466","$version":"A","$type":"Bolt.SuperUnit","$id":"106"},{"defaultValues":{},"position":{"x":590.0,"y":-119.0},"guid":"33a4165b-c911-432d-9f34-de08594210b9","$version":"A","$type":"Bolt.ScalarNormalize","$id":"109"},{"sourceUnit":{"$ref":"93"},"sourceKey":"value","destinationUnit":{"$ref":"95"},"destinationKey":"target","guid":"17032a58-aca9-44d9-9e18-458275440183","$type":"Bolt.ValueConnection"},{"sourceUnit":{"$ref":"95"},"sourceKey":"value","destinationUnit":{"$ref":"101"},"destinationKey":"minuend","guid":"e2412428-e57c-4f2f-bb77-1c87ab389f9f","$type":"Bolt.ValueConnection"},{"sourceUnit":{"$ref":"98"},"sourceKey":"value","destinationUnit":{"$ref":"101"},"destinationKey":"subtrahend","guid":"3d5fc43a-d88f-4acf-8146-e938814fdee2","$type":"Bolt.ValueConnection"},{"sourceUnit":{"$ref":"101"},"sourceKey":"difference","destinationUnit":{"$ref":"103"},"destinationKey":"target","guid":"aca9211f-b398-44d5-9a0a-bdb0af34b192","$type":"Bolt.ValueConnection"},{"sourceUnit":{"$ref":"103"},"sourceKey":"value","destinationUnit":{"$ref":"109"},"destinationKey":"input","guid":"6ea98d02-4a1b-4ed0-bfd6-7962826b7d8c","$type":"Bolt.ValueConnection"},{"sourceUnit":{"$ref":"109"},"sourceKey":"output","destinationUnit":{"$ref":"106"},"destinationKey":"direction","guid":"d4999c11-5df5-4f9b-aba9-a48c9fbb13bc","$type":"Bolt.ValueConnection"}],"$version":"A"}},"isStart":false,"position":{"x":-105.0,"y":107.0},"width":170.0,"guid":"e781cdf3-02e2-495b-9b93-32e9790dc7a7","$version":"A","$type":"Bolt.FlowState","$id":"83"},{"nest":{"source":"Embed","macro":null,"embed":{"variables":{"collection":{"$content":[],"$version":"A"},"$version":"A"},"controlInputDefinitions":[],"controlOutputDefinitions":[],"valueInputDefinitions":[],"valueOutputDefinitions":[],"title":"Noticed
      Player","summary":null,"pan":{"x":-233.6714,"y":-61.39824},"zoom":1.0,"elements":[{"defaultValues":{},"position":{"x":143.0,"y":-134.0},"guid":"f1264344-0390-498e-86fb-3ec820f19e50","$version":"A","$type":"Bolt.TriggerStateTransition","$id":"127"},{"coroutine":false,"defaultValues":{},"position":{"x":-184.0,"y":-244.0},"guid":"3188a1bc-cdca-4593-8866-ae5cdc1874f6","$version":"A","$type":"Bolt.Update","$id":"129"},{"defaultValues":{},"position":{"x":-25.0,"y":-122.0},"guid":"9837c06b-fe41-451e-861c-76733b5f4b78","$version":"A","$type":"Bolt.Branch","$id":"131"},{"specifyFallback":false,"kind":"Object","defaultValues":{"name":{"$content":"Detection","$type":"System.String"},"object":null},"position":{"x":-463.0,"y":-41.0},"guid":"23b154ef-81f1-4f9b-85d1-ba5984e47027","$version":"A","$type":"Bolt.GetVariable","$id":"133"},{"specifyFallback":false,"kind":"Application","defaultValues":{"name":{"$content":"Player","$type":"System.String"}},"position":{"x":-451.0,"y":-160.0},"guid":"2a2a853b-0b2c-42a3-a2c0-5e32becbd629","$version":"A","$type":"Bolt.GetVariable","$id":"135"},{"nest":{"source":"Macro","macro":13,"embed":null},"defaultValues":{},"position":{"x":-244.0,"y":-125.0},"guid":"d6cf2357-463f-4953-9b6f-db659225d2ec","$version":"A","$type":"Bolt.SuperUnit","$id":"137"},{"sourceUnit":{"$ref":"131"},"sourceKey":"ifTrue","destinationUnit":{"$ref":"127"},"destinationKey":"trigger","guid":"18255476-c4da-412d-b8e4-b71ccf87d573","$type":"Bolt.ControlConnection"},{"sourceUnit":{"$ref":"129"},"sourceKey":"trigger","destinationUnit":{"$ref":"131"},"destinationKey":"enter","guid":"b2a21903-c14b-4028-b400-38d468acfe4d","$type":"Bolt.ControlConnection"},{"sourceUnit":{"$ref":"135"},"sourceKey":"value","destinationUnit":{"$ref":"137"},"destinationKey":"Other","guid":"ee976743-e277-44bf-9e39-bdfdbce49c01","$type":"Bolt.ValueConnection"},{"sourceUnit":{"$ref":"133"},"sourceKey":"value","destinationUnit":{"$ref":"137"},"destinationKey":"Range","guid":"3641fb1c-0a0b-4272-a2dc-2624fb082c31","$type":"Bolt.ValueConnection"},{"sourceUnit":{"$ref":"137"},"sourceKey":"Within
      Range","destinationUnit":{"$ref":"131"},"destinationKey":"condition","guid":"73e6281c-d0ab-4eda-a8b8-83b80c6054c3","$type":"Bolt.ValueConnection"}],"$version":"A"}},"source":{"$ref":"7"},"destination":{"$ref":"83"},"guid":"d6f4fe85-0922-4468-a3a9-38b6cbe24cc9","$version":"A","$type":"Bolt.FlowStateTransition"},{"nest":{"source":"Embed","macro":null,"embed":{"variables":{"collection":{"$content":[],"$version":"A"},"$version":"A"},"controlInputDefinitions":[],"controlOutputDefinitions":[],"valueInputDefinitions":[],"valueOutputDefinitions":[],"title":"Player
      Escaped","summary":null,"pan":{"x":-377.9473,"y":-15.42045},"zoom":1.0,"elements":[{"defaultValues":{},"position":{"x":-139.0,"y":-132.0},"guid":"9357f6e4-ffe2-4864-a35f-5ee4a44b131a","$version":"A","$type":"Bolt.TriggerStateTransition","$id":"155"},{"defaultValues":{},"position":{"x":-295.0,"y":-128.0},"guid":"15b114ce-fd9e-4f45-83b6-d50c6bcc7e7d","$version":"A","$type":"Bolt.Branch","$id":"157"},{"specifyFallback":false,"kind":"Object","defaultValues":{"name":{"$content":"Detection","$type":"System.String"},"object":null},"position":{"x":-714.0,"y":20.0},"guid":"890da09d-319a-427a-8e79-2bf3629359a6","$version":"A","$type":"Bolt.GetVariable","$id":"159"},{"coroutine":false,"defaultValues":{},"position":{"x":-473.0,"y":-177.0},"guid":"fbea8547-385e-4f56-aa7f-af211a4d5080","$version":"A","$type":"Bolt.Update","$id":"161"},{"specifyFallback":false,"kind":"Application","defaultValues":{"name":{"$content":"Player","$type":"System.String"}},"position":{"x":-717.0,"y":-92.0},"guid":"6fe7cfc2-722a-4c84-8c98-33306359a951","$version":"A","$type":"Bolt.GetVariable","$id":"163"},{"nest":{"source":"Macro","macro":14,"embed":null},"defaultValues":{},"position":{"x":-522.0,"y":-60.0},"guid":"11b636c5-d32a-4155-9843-6c823aac11f9","$version":"A","$type":"Bolt.SuperUnit","$id":"165"},{"sourceUnit":{"$ref":"161"},"sourceKey":"trigger","destinationUnit":{"$ref":"157"},"destinationKey":"enter","guid":"ae9a315b-41e6-42a9-9563-c9bba67dd089","$type":"Bolt.ControlConnection"},{"sourceUnit":{"$ref":"157"},"sourceKey":"ifFalse","destinationUnit":{"$ref":"155"},"destinationKey":"trigger","guid":"bd02abc7-2cc9-4835-9676-fdeae5b89c94","$type":"Bolt.ControlConnection"},{"sourceUnit":{"$ref":"163"},"sourceKey":"value","destinationUnit":{"$ref":"165"},"destinationKey":"Other","guid":"8f6de99d-4e94-4608-ae4d-b7bd2c962eea","$type":"Bolt.ValueConnection"},{"sourceUnit":{"$ref":"159"},"sourceKey":"value","destinationUnit":{"$ref":"165"},"destinationKey":"Range","guid":"f530559d-7904-4c3c-8bb2-a222a3610f1b","$type":"Bolt.ValueConnection"},{"sourceUnit":{"$ref":"165"},"sourceKey":"Within
      Range","destinationUnit":{"$ref":"157"},"destinationKey":"condition","guid":"699269cb-8ff1-4ad6-b22e-b078ca1a0272","$type":"Bolt.ValueConnection"}],"$version":"A"}},"source":{"$ref":"83"},"destination":{"$ref":"7"},"guid":"9e7ef716-ffba-4e2b-871f-e83df14db023","$version":"A","$type":"Bolt.FlowStateTransition"}],"$version":"A"}},"isStart":true,"position":{"x":-125.0,"y":-91.0},"width":170.0,"guid":"330d1bc2-c75e-40dc-8a24-ae0795727a85","$type":"Bolt.SuperState","$id":"3"},{"nest":{"source":"Embed","macro":null,"embed":{"variables":{"collection":{"$content":[],"$version":"A"},"$version":"A"},"controlInputDefinitions":[],"controlOutputDefinitions":[],"valueInputDefinitions":[],"valueOutputDefinitions":[],"title":"Dead","summary":null,"pan":{"x":157.5544,"y":221.6053},"zoom":1.0,"elements":[{"coroutine":false,"defaultValues":{},"position":{"x":-15.0,"y":-83.0},"guid":"778d266a-ad79-46c7-964f-88efddc17b70","$version":"A","$type":"Bolt.OnEnterState","$id":"183"},{"defaultValues":{"input":{"$content":720.0,"$type":"System.Single"}},"position":{"x":-553.0,"y":273.0},"guid":"43d17268-d008-4571-8cb7-08f8c382f489","$version":"A","$type":"Bolt.ScalarPerSecond","$id":"185"},{"chainable":false,"member":{"name":"Rotate","parameterTypes":["System.Single","System.Single","System.Single"],"targetType":"UnityEngine.Transform","targetTypeName":"UnityEngine.Transform","$version":"A"},"defaultValues":{"target":null,"%xAngle":{"$content":0.0,"$type":"System.Single"},"%yAngle":{"$content":0.0,"$type":"System.Single"},"%zAngle":{"$content":0.0,"$type":"System.Single"}},"position":{"x":-333.0,"y":164.0},"guid":"4419dfb0-9746-474c-8604-b3921665bf53","$version":"A","$type":"Bolt.InvokeMember","$id":"187"},{"defaultValues":{},"position":{"x":319.0,"y":387.0},"guid":"5a753f9c-7956-494a-b8b3-08edfe1affef","$version":"A","$type":"Bolt.Self","$id":"190"},{"chainable":false,"member":{"name":"Destroy","parameterTypes":["UnityEngine.Object","System.Single"],"targetType":"UnityEngine.Component","targetTypeName":"UnityEngine.Component","$version":"A"},"defaultValues":{"%obj":null,"%t":{"$content":5.0,"$type":"System.Single"}},"position":{"x":495.0,"y":347.0},"guid":"ebb2fa58-5412-40eb-b597-4fe8584ef850","$version":"A","$type":"Bolt.InvokeMember","$id":"192"},{"coroutine":false,"defaultValues":{},"position":{"x":-554.0,"y":153.0},"guid":"c556a197-4aff-4b18-9f8a-0edd409f0d33","$version":"A","$type":"Bolt.Update","$id":"195"},{"chainable":false,"member":{"name":"color","parameterTypes":null,"targetType":"UnityEngine.SpriteRenderer","targetTypeName":"UnityEngine.SpriteRenderer","$version":"A"},"defaultValues":{"target":null,"input":{"r":1.0,"g":0.0,"b":0.0,"a":0.5019608,"$type":"UnityEngine.Color"}},"position":{"x":497.0,"y":35.0},"guid":"588c2155-7327-45d2-83ed-66d0731b3ff9","$version":"A","$type":"Bolt.SetMember","$id":"197"},{"chainable":false,"member":{"name":"velocity","parameterTypes":null,"targetType":"UnityEngine.Rigidbody2D","targetTypeName":"UnityEngine.Rigidbody2D","$version":"A"},"defaultValues":{"target":null,"input":{"x":0.0,"y":0.0,"$type":"UnityEngine.Vector2"}},"position":{"x":497.0,"y":-271.0},"guid":"03e8e5ff-06d3-4cee-bf68-602d207f0b62","$version":"A","$type":"Bolt.SetMember","$id":"200"},{"outputCount":5,"defaultValues":{},"position":{"x":188.0,"y":-81.0},"guid":"ab8ce0d9-d5a9-4ff0-a7f8-3efe77a77815","$version":"A","$type":"Bolt.Sequence","$id":"203"},{"chainable":false,"member":{"name":"SetFloat","parameterTypes":["System.String","System.Single"],"targetType":"UnityEngine.Animator","targetTypeName":"UnityEngine.Animator","$version":"A"},"defaultValues":{"target":null,"%name":{"$content":"Speed","$type":"System.String"},"%value":{"$content":0.0,"$type":"System.Single"}},"position":{"x":503.0,"y":186.0},"guid":"7900eb96-6b89-4bbf-97b2-acf28d6e3959","$version":"A","$type":"Bolt.InvokeMember","$id":"205"},{"chainable":false,"member":{"name":"enabled","parameterTypes":null,"targetType":"UnityEngine.Collider2D","targetTypeName":"UnityEngine.Collider2D","$version":"A"},"defaultValues":{"target":null,"input":{"$content":false,"$type":"System.Boolean"}},"position":{"x":497.0,"y":-120.0},"guid":"ce438733-4350-4948-a759-311450cdc3c2","$version":"A","$type":"Bolt.SetMember","$id":"208"},{"sourceUnit":{"$ref":"183"},"sourceKey":"trigger","destinationUnit":{"$ref":"203"},"destinationKey":"enter","guid":"bc7ded04-a701-414c-8c19-318e72769317","$type":"Bolt.ControlConnection"},{"sourceUnit":{"$ref":"203"},"sourceKey":"0","destinationUnit":{"$ref":"200"},"destinationKey":"assign","guid":"d18c91d3-304b-4bc4-8fc3-f5b42a44a7f7","$type":"Bolt.ControlConnection"},{"sourceUnit":{"$ref":"203"},"sourceKey":"2","destinationUnit":{"$ref":"197"},"destinationKey":"assign","guid":"e2f5895b-fb25-4584-86ff-94473b54acb6","$type":"Bolt.ControlConnection"},{"sourceUnit":{"$ref":"203"},"sourceKey":"3","destinationUnit":{"$ref":"205"},"destinationKey":"enter","guid":"80bb9676-051c-4c27-8c36-7825ffb07ef7","$type":"Bolt.ControlConnection"},{"sourceUnit":{"$ref":"203"},"sourceKey":"4","destinationUnit":{"$ref":"192"},"destinationKey":"enter","guid":"3f76e595-97cb-4403-abc9-1805bbbe8912","$type":"Bolt.ControlConnection"},{"sourceUnit":{"$ref":"195"},"sourceKey":"trigger","destinationUnit":{"$ref":"187"},"destinationKey":"enter","guid":"b72f3238-1c9b-46e8-b838-059dc06305db","$type":"Bolt.ControlConnection"},{"sourceUnit":{"$ref":"203"},"sourceKey":"1","destinationUnit":{"$ref":"208"},"destinationKey":"assign","guid":"78cc001f-cb24-41f2-a99f-396e02903f7e","$type":"Bolt.ControlConnection"},{"sourceUnit":{"$ref":"190"},"sourceKey":"self","destinationUnit":{"$ref":"192"},"destinationKey":"%obj","guid":"88b7b428-4aca-450b-9f66-488c9e4f5878","$type":"Bolt.ValueConnection"},{"sourceUnit":{"$ref":"185"},"sourceKey":"output","destinationUnit":{"$ref":"187"},"destinationKey":"%zAngle","guid":"6d04427e-302f-4832-acd2-b0fefe91ec27","$type":"Bolt.ValueConnection"},{"position":{"xMin":-586.6666,"yMin":108.0001,"xMax":-169.9999,"yMax":381.3334},"label":"Spin
      for effect","comment":null,"color":{"r":0.0,"g":0.0,"b":0.0,"a":1.0},"guid":"8b9e82fa-29f5-48f7-98cb-95403618f3f3","$version":"A","$type":"Ludiq.GraphGroup"},{"position":{"xMin":-63.0,"yMin":-331.0,"xMax":687.0,"yMax":527.0},"label":"Stop,
      disable collider, dim, destroy","comment":null,"color":{"r":0.0,"g":0.0,"b":0.0,"a":1.0},"guid":"81bfc226-e9ec-45d3-86ef-b5dbbb0cf9f1","$version":"A","$type":"Ludiq.GraphGroup"}],"$version":"A"}},"isStart":false,"position":{"x":-125.0,"y":91.0},"width":170.0,"guid":"d28cd92c-c089-4021-9bd7-3a616f2c5607","$version":"A","$type":"Bolt.FlowState","$id":"173"},{"nest":{"source":"Embed","macro":null,"embed":{"variables":{"collection":{"$content":[],"$version":"A"},"$version":"A"},"controlInputDefinitions":[],"controlOutputDefinitions":[],"valueInputDefinitions":[],"valueOutputDefinitions":[],"title":"Death","summary":null,"pan":{"x":0.0,"y":0.0},"zoom":1.0,"elements":[{"defaultValues":{},"position":{"x":-105.0,"y":-49.0},"guid":"7ef96363-3aa3-4261-9af2-276f7c1784b5","$version":"A","$type":"Bolt.TriggerStateTransition","$id":"232"},{"argumentCount":0,"coroutine":false,"defaultValues":{"target":null,"name":{"$content":"Death","$type":"System.String"}},"position":{"x":-319.0,"y":-45.0},"guid":"bda4254e-25e7-437d-9423-6b75c03241db","$version":"A","$type":"Bolt.CustomEvent","$id":"234"},{"sourceUnit":{"$ref":"234"},"sourceKey":"trigger","destinationUnit":{"$ref":"232"},"destinationKey":"trigger","guid":"c137aa61-8262-45aa-9ac8-ff335fc898f1","$type":"Bolt.ControlConnection"}],"$version":"A"}},"source":{"$ref":"3"},"destination":{"$ref":"173"},"guid":"d6e047da-131c-4efe-800d-0acaebe3bc70","$version":"A","$type":"Bolt.FlowStateTransition"}],"$version":"A"}}'
    _objectReferences:
    - {fileID: 11400000, guid: cf2aa8941ce32d34897311f99c147757, type: 2}
    - {fileID: 11400000, guid: cf2aa8941ce32d34897311f99c147757, type: 2}
    - {fileID: 11400000, guid: cf2aa8941ce32d34897311f99c147757, type: 2}
    - {fileID: 11400000, guid: 7baad9337a40a394096083ab28d7bebb, type: 2}
    - {fileID: 11400000, guid: 7baad9337a40a394096083ab28d7bebb, type: 2}
    - {fileID: 11400000, guid: 7baad9337a40a394096083ab28d7bebb, type: 2}
    - {fileID: 11400000, guid: 7baad9337a40a394096083ab28d7bebb, type: 2}
    - {fileID: 11400000, guid: 7baad9337a40a394096083ab28d7bebb, type: 2}
    - {fileID: 11400000, guid: 7baad9337a40a394096083ab28d7bebb, type: 2}
    - {fileID: 11400000, guid: a18c77f1c85dd21408f01e952bd5dc84, type: 2}
    - {fileID: 11400000, guid: a18c77f1c85dd21408f01e952bd5dc84, type: 2}
    - {fileID: 11400000, guid: ff75ce1729a0f0c499ea272e8ec7c154, type: 2}
    - {fileID: 11400000, guid: cf2aa8941ce32d34897311f99c147757, type: 2}
    - {fileID: 11400000, guid: 5c0dfbba04b46d44c9483a3da2f82f6a, type: 2}
    - {fileID: 11400000, guid: 5c0dfbba04b46d44c9483a3da2f82f6a, type: 2}
