%YAML 1.1
%TAG !u! tag:unity3d.com,2011:
--- !u!21 &2100000
Material:
  serializedVersion: 6
  m_ObjectHideFlags: 0
  m_CorrespondingSourceObject: {fileID: 0}
  m_PrefabInstance: {fileID: 0}
  m_PrefabAsset: {fileID: 0}
  m_Name: Leaves_1
  m_Shader: {fileID: 14002, guid: 0000000000000000f000000000000000, type: 0}
  m_ShaderKeywords: GEOM_TYPE_LEAF _WINDQUALITY_BEST
  m_LightmapFlags: 5
  m_EnableInstancingVariants: 1
  m_DoubleSidedGI: 0
  m_CustomRenderQueue: -1
  stringTagMap: {}
  disabledShaderPasses: []
  m_SavedProperties:
    serializedVersion: 3
    m_TexEnvs:
    - _BumpMap:
        m_Texture: {fileID: 2800000, guid: be053ea3235ccb64a889bf0b15c2764b, type: 3}
        m_Scale: {x: 1, y: 1}
        m_Offset: {x: 0, y: 0}
    - _DetailTex:
        m_Texture: {fileID: 0}
        m_Scale: {x: 1, y: 1}
        m_Offset: {x: 0, y: 0}
    - _ExtraTex:
        m_Texture: {fileID: 0}
        m_Scale: {x: 1, y: 1}
        m_Offset: {x: 0, y: 0}
    - _MainTex:
        m_Texture: {fileID: 2800000, guid: 2c116325e19b8a04d916864cc540ec2d, type: 3}
        m_Scale: {x: 1, y: 1}
        m_Offset: {x: 0, y: 0}
    - _SubsurfaceTex:
        m_Texture: {fileID: 0}
        m_Scale: {x: 1, y: 1}
        m_Offset: {x: 0, y: 0}
    m_Floats:
    - _BillboardKwToggle: 0
    - _BillboardShadowFade: 0.5
    - _Cull: 0
    - _Cutoff: 0.33
    - _Glossiness: 0.5
    - _HueVariationKwToggle: 0
    - _Metallic: 0
    - _NormalMapKwToggle: 0
    - _SubsurfaceIndirect: 0.25
    - _SubsurfaceKwToggle: 0
    - _TwoSided: 2
    - _WindQuality: 4
    m_Colors:
    - _Color: {r: 1, g: 1, b: 1, a: 1}
    - _HueVariation: {r: 1, g: 0.5, b: 0, a: 0.1}
    - _HueVariationColor: {r: 1, g: 0.5, b: 0, a: 0.1}
    - _SubsurfaceColor: {r: 1, g: 1, b: 1, a: 1}
