%YAML 1.1
%TAG !u! tag:unity3d.com,2011:
--- !u!50 &26600484
Rigidbody2D:
  serializedVersion: 4
  m_ObjectHideFlags: 0
  m_CorrespondingSourceObject: {fileID: 0}
  m_PrefabInstance: {fileID: 0}
  m_PrefabAsset: {fileID: 0}
  m_GameObject: {fileID: 5152945008812834992}
  m_BodyType: 0
  m_Simulated: 1
  m_UseFullKinematicContacts: 0
  m_UseAutoMass: 0
  m_Mass: 1
  m_LinearDrag: 0
  m_AngularDrag: 0.05
  m_GravityScale: 9
  m_Material: {fileID: 0}
  m_Interpolate: 0
  m_SleepingMode: 1
  m_CollisionDetection: 0
  m_Constraints: 4
--- !u!61 &26600482
BoxCollider2D:
  m_ObjectHideFlags: 0
  m_CorrespondingSourceObject: {fileID: 0}
  m_PrefabInstance: {fileID: 0}
  m_PrefabAsset: {fileID: 0}
  m_GameObject: {fileID: 5152945008812834992}
  m_Enabled: 1
  m_Density: 1
  m_Material: {fileID: 0}
  m_IsTrigger: 0
  m_UsedByEffector: 0
  m_UsedByComposite: 0
  m_Offset: {x: 0.133422, y: 0.433077}
  m_SpriteTilingProperty:
    border: {x: 0, y: 0, z: 0, w: 0}
    pivot: {x: 0, y: 0}
    oldSize: {x: 0, y: 0}
    newSize: {x: 0, y: 0}
    adaptiveTilingThreshold: 0
    drawMode: 0
    adaptiveTiling: 0
  m_AutoTiling: 0
  serializedVersion: 2
  m_Size: {x: 0.7735281, y: 0.22502106}
  m_EdgeRadius: 0
--- !u!58 &26600488
CircleCollider2D:
  m_ObjectHideFlags: 0
  m_CorrespondingSourceObject: {fileID: 0}
  m_PrefabInstance: {fileID: 0}
  m_PrefabAsset: {fileID: 0}
  m_GameObject: {fileID: 5152945008812834992}
  m_Enabled: 1
  m_Density: 1
  m_Material: {fileID: 0}
  m_IsTrigger: 0
  m_UsedByEffector: 0
  m_UsedByComposite: 0
  m_Offset: {x: -0.73702145, y: 1.6075594}
  serializedVersion: 2
  m_Radius: 0.1742144
--- !u!114 &26600485
MonoBehaviour:
  m_ObjectHideFlags: 0
  m_CorrespondingSourceObject: {fileID: 0}
  m_PrefabInstance: {fileID: 0}
  m_PrefabAsset: {fileID: 0}
  m_GameObject: {fileID: 5152945008812834992}
  m_Enabled: 1
  m_EditorHideFlags: 0
  m_Script: {fileID: 11500000, guid: 5fac57c7263ef694ab3ab8ca01d68924, type: 3}
  m_Name: 
  m_EditorClassIdentifier: 
  visionRadius: 1
  speed: 1
--- !u!114 &26600486
MonoBehaviour:
  m_ObjectHideFlags: 0
  m_CorrespondingSourceObject: {fileID: 0}
  m_PrefabInstance: {fileID: 0}
  m_PrefabAsset: {fileID: 0}
  m_GameObject: {fileID: 5152945008812834992}
  m_Enabled: 1
  m_EditorHideFlags: 0
  m_Script: {fileID: 11500000, guid: bc943a2871500ea498ce8f552df4ca33, type: 3}
  m_Name: 
  m_EditorClassIdentifier: 
--- !u!1001 &5152945008812803600
PrefabInstance:
  m_ObjectHideFlags: 0
  serializedVersion: 2
  m_Modification:
    m_TransformParent: {fileID: 0}
    m_Modifications:
    - target: {fileID: 100000, guid: 62e7640c3ff95f04f91524f16ef840d3, type: 3}
      propertyPath: m_Name
      value: Minion
      objectReference: {fileID: 0}
    - target: {fileID: 400000, guid: 62e7640c3ff95f04f91524f16ef840d3, type: 3}
      propertyPath: m_LocalPosition.x
      value: -3.632
      objectReference: {fileID: 0}
    - target: {fileID: 400000, guid: 62e7640c3ff95f04f91524f16ef840d3, type: 3}
      propertyPath: m_LocalPosition.y
      value: -4.052
      objectReference: {fileID: 0}
    - target: {fileID: 400000, guid: 62e7640c3ff95f04f91524f16ef840d3, type: 3}
      propertyPath: m_LocalPosition.z
      value: 0
      objectReference: {fileID: 0}
    - target: {fileID: 400000, guid: 62e7640c3ff95f04f91524f16ef840d3, type: 3}
      propertyPath: m_LocalRotation.x
      value: 0
      objectReference: {fileID: 0}
    - target: {fileID: 400000, guid: 62e7640c3ff95f04f91524f16ef840d3, type: 3}
      propertyPath: m_LocalRotation.y
      value: 0
      objectReference: {fileID: 0}
    - target: {fileID: 400000, guid: 62e7640c3ff95f04f91524f16ef840d3, type: 3}
      propertyPath: m_LocalRotation.z
      value: 0
      objectReference: {fileID: 0}
    - target: {fileID: 400000, guid: 62e7640c3ff95f04f91524f16ef840d3, type: 3}
      propertyPath: m_LocalRotation.w
      value: 1
      objectReference: {fileID: 0}
    - target: {fileID: 400000, guid: 62e7640c3ff95f04f91524f16ef840d3, type: 3}
      propertyPath: m_RootOrder
      value: 0
      objectReference: {fileID: 0}
    - target: {fileID: 400000, guid: 62e7640c3ff95f04f91524f16ef840d3, type: 3}
      propertyPath: m_LocalEulerAnglesHint.x
      value: 0
      objectReference: {fileID: 0}
    - target: {fileID: 400000, guid: 62e7640c3ff95f04f91524f16ef840d3, type: 3}
      propertyPath: m_LocalEulerAnglesHint.y
      value: 0
      objectReference: {fileID: 0}
    - target: {fileID: 400000, guid: 62e7640c3ff95f04f91524f16ef840d3, type: 3}
      propertyPath: m_LocalEulerAnglesHint.z
      value: 0
      objectReference: {fileID: 0}
    - target: {fileID: 400000, guid: 62e7640c3ff95f04f91524f16ef840d3, type: 3}
      propertyPath: m_LocalScale.x
      value: 0.2
      objectReference: {fileID: 0}
    - target: {fileID: 400000, guid: 62e7640c3ff95f04f91524f16ef840d3, type: 3}
      propertyPath: m_LocalScale.y
      value: 0.2
      objectReference: {fileID: 0}
    - target: {fileID: 400018, guid: 62e7640c3ff95f04f91524f16ef840d3, type: 3}
      propertyPath: m_LocalRotation.x
      value: -0
      objectReference: {fileID: 0}
    - target: {fileID: 400018, guid: 62e7640c3ff95f04f91524f16ef840d3, type: 3}
      propertyPath: m_LocalRotation.y
      value: -0
      objectReference: {fileID: 0}
    - target: {fileID: 400018, guid: 62e7640c3ff95f04f91524f16ef840d3, type: 3}
      propertyPath: m_LocalRotation.z
      value: -0.09442222
      objectReference: {fileID: 0}
    - target: {fileID: 400018, guid: 62e7640c3ff95f04f91524f16ef840d3, type: 3}
      propertyPath: m_LocalRotation.w
      value: 0.9955323
      objectReference: {fileID: 0}
    - target: {fileID: 400018, guid: 62e7640c3ff95f04f91524f16ef840d3, type: 3}
      propertyPath: m_LocalEulerAnglesHint.z
      value: -10.836
      objectReference: {fileID: 0}
    - target: {fileID: 400026, guid: 62e7640c3ff95f04f91524f16ef840d3, type: 3}
      propertyPath: m_LocalPosition.x
      value: 0.35662442
      objectReference: {fileID: 0}
    - target: {fileID: 400026, guid: 62e7640c3ff95f04f91524f16ef840d3, type: 3}
      propertyPath: m_LocalPosition.y
      value: -0.014202595
      objectReference: {fileID: 0}
    - target: {fileID: 400026, guid: 62e7640c3ff95f04f91524f16ef840d3, type: 3}
      propertyPath: m_LocalRotation.x
      value: -0
      objectReference: {fileID: 0}
    - target: {fileID: 400026, guid: 62e7640c3ff95f04f91524f16ef840d3, type: 3}
      propertyPath: m_LocalRotation.y
      value: -0
      objectReference: {fileID: 0}
    - target: {fileID: 400026, guid: 62e7640c3ff95f04f91524f16ef840d3, type: 3}
      propertyPath: m_LocalRotation.z
      value: -0.17302158
      objectReference: {fileID: 0}
    - target: {fileID: 400026, guid: 62e7640c3ff95f04f91524f16ef840d3, type: 3}
      propertyPath: m_LocalRotation.w
      value: 0.9849181
      objectReference: {fileID: 0}
    - target: {fileID: 400026, guid: 62e7640c3ff95f04f91524f16ef840d3, type: 3}
      propertyPath: m_LocalEulerAnglesHint.z
      value: -19.927
      objectReference: {fileID: 0}
    m_RemovedComponents: []
  m_SourcePrefab: {fileID: 100100000, guid: 62e7640c3ff95f04f91524f16ef840d3, type: 3}
--- !u!1 &5152945008812834992 stripped
GameObject:
  m_CorrespondingSourceObject: {fileID: 100000, guid: 62e7640c3ff95f04f91524f16ef840d3,
    type: 3}
  m_PrefabInstance: {fileID: 5152945008812803600}
  m_PrefabAsset: {fileID: 0}
