%YAML 1.1
%TAG !u! tag:unity3d.com,2011:
--- !u!50 &497899532
Rigidbody2D:
  serializedVersion: 4
  m_ObjectHideFlags: 0
  m_CorrespondingSourceObject: {fileID: 0}
  m_PrefabInstance: {fileID: 0}
  m_PrefabAsset: {fileID: 0}
  m_GameObject: {fileID: 7707214271292826019}
  m_BodyType: 0
  m_Simulated: 1
  m_UseFullKinematicContacts: 0
  m_UseAutoMass: 0
  m_Mass: 1
  m_LinearDrag: 0
  m_AngularDrag: 0.05
  m_GravityScale: 1
  m_Material: {fileID: 0}
  m_Interpolate: 0
  m_SleepingMode: 1
  m_CollisionDetection: 0
  m_Constraints: 4
--- !u!61 &497899533
BoxCollider2D:
  m_ObjectHideFlags: 0
  m_CorrespondingSourceObject: {fileID: 0}
  m_PrefabInstance: {fileID: 0}
  m_PrefabAsset: {fileID: 0}
  m_GameObject: {fileID: 7707214271292826019}
  m_Enabled: 1
  m_Density: 1
  m_Material: {fileID: 0}
  m_IsTrigger: 0
  m_UsedByEffector: 0
  m_UsedByComposite: 0
  m_Offset: {x: -0.08563334, y: -0.14460014}
  m_SpriteTilingProperty:
    border: {x: 0, y: 0, z: 0, w: 0}
    pivot: {x: 0, y: 0}
    oldSize: {x: 0, y: 0}
    newSize: {x: 0, y: 0}
    adaptiveTilingThreshold: 0
    drawMode: 0
    adaptiveTiling: 0
  m_AutoTiling: 0
  serializedVersion: 2
  m_Size: {x: 1.7153486, y: 0.13116917}
  m_EdgeRadius: 0
--- !u!58 &497899534
CircleCollider2D:
  m_ObjectHideFlags: 0
  m_CorrespondingSourceObject: {fileID: 0}
  m_PrefabInstance: {fileID: 0}
  m_PrefabAsset: {fileID: 0}
  m_GameObject: {fileID: 7707214271292826019}
  m_Enabled: 1
  m_Density: 1
  m_Material: {fileID: 0}
  m_IsTrigger: 1
  m_UsedByEffector: 0
  m_UsedByComposite: 0
  m_Offset: {x: -0.53400683, y: 0.5477339}
  serializedVersion: 2
  m_Radius: 0.6506571
--- !u!95 &497899535
Animator:
  serializedVersion: 3
  m_ObjectHideFlags: 0
  m_CorrespondingSourceObject: {fileID: 0}
  m_PrefabInstance: {fileID: 0}
  m_PrefabAsset: {fileID: 0}
  m_GameObject: {fileID: 7707214271292826019}
  m_Enabled: 1
  m_Avatar: {fileID: 0}
  m_Controller: {fileID: 9100000, guid: a81fdf1d42448fd4ca80d2e4c8c4aeeb, type: 2}
  m_CullingMode: 0
  m_UpdateMode: 0
  m_ApplyRootMotion: 0
  m_LinearVelocityBlending: 0
  m_WarningMessage: 
  m_HasTransformHierarchy: 1
  m_AllowConstantClipSamplingOptimization: 1
  m_KeepAnimatorControllerStateOnDisable: 0
--- !u!114 &497899531
MonoBehaviour:
  m_ObjectHideFlags: 0
  m_CorrespondingSourceObject: {fileID: 0}
  m_PrefabInstance: {fileID: 0}
  m_PrefabAsset: {fileID: 0}
  m_GameObject: {fileID: 7707214271292826019}
  m_Enabled: 1
  m_EditorHideFlags: 0
  m_Script: {fileID: 11500000, guid: 3f408b7d599a971479b92a6e23a9a1bf, type: 3}
  m_Name: 
  m_EditorClassIdentifier: 
  visionRadius: 1
  vel: 0.7
  length: 1
--- !u!114 &497899537
MonoBehaviour:
  m_ObjectHideFlags: 0
  m_CorrespondingSourceObject: {fileID: 0}
  m_PrefabInstance: {fileID: 0}
  m_PrefabAsset: {fileID: 0}
  m_GameObject: {fileID: 7707214271292826019}
  m_Enabled: 1
  m_EditorHideFlags: 0
  m_Script: {fileID: 11500000, guid: bc943a2871500ea498ce8f552df4ca33, type: 3}
  m_Name: 
  m_EditorClassIdentifier: 
--- !u!1001 &7707214271292860163
PrefabInstance:
  m_ObjectHideFlags: 0
  serializedVersion: 2
  m_Modification:
    m_TransformParent: {fileID: 0}
    m_Modifications:
    - target: {fileID: 100000, guid: 07e8e82d4f8043f48ae7ce23cd30c04b, type: 3}
      propertyPath: m_Name
      value: Cuc Variant
      objectReference: {fileID: 0}
    - target: {fileID: 100000, guid: 07e8e82d4f8043f48ae7ce23cd30c04b, type: 3}
      propertyPath: m_TagString
      value: Enemy
      objectReference: {fileID: 0}
    - target: {fileID: 100006, guid: 07e8e82d4f8043f48ae7ce23cd30c04b, type: 3}
      propertyPath: m_IsActive
      value: 0
      objectReference: {fileID: 0}
    - target: {fileID: 100008, guid: 07e8e82d4f8043f48ae7ce23cd30c04b, type: 3}
      propertyPath: m_IsActive
      value: 0
      objectReference: {fileID: 0}
    - target: {fileID: 100010, guid: 07e8e82d4f8043f48ae7ce23cd30c04b, type: 3}
      propertyPath: m_IsActive
      value: 0
      objectReference: {fileID: 0}
    - target: {fileID: 400000, guid: 07e8e82d4f8043f48ae7ce23cd30c04b, type: 3}
      propertyPath: m_LocalPosition.x
      value: -4.54
      objectReference: {fileID: 0}
    - target: {fileID: 400000, guid: 07e8e82d4f8043f48ae7ce23cd30c04b, type: 3}
      propertyPath: m_LocalPosition.y
      value: -3.831
      objectReference: {fileID: 0}
    - target: {fileID: 400000, guid: 07e8e82d4f8043f48ae7ce23cd30c04b, type: 3}
      propertyPath: m_LocalPosition.z
      value: 0
      objectReference: {fileID: 0}
    - target: {fileID: 400000, guid: 07e8e82d4f8043f48ae7ce23cd30c04b, type: 3}
      propertyPath: m_LocalRotation.x
      value: 0
      objectReference: {fileID: 0}
    - target: {fileID: 400000, guid: 07e8e82d4f8043f48ae7ce23cd30c04b, type: 3}
      propertyPath: m_LocalRotation.y
      value: 0
      objectReference: {fileID: 0}
    - target: {fileID: 400000, guid: 07e8e82d4f8043f48ae7ce23cd30c04b, type: 3}
      propertyPath: m_LocalRotation.z
      value: 0
      objectReference: {fileID: 0}
    - target: {fileID: 400000, guid: 07e8e82d4f8043f48ae7ce23cd30c04b, type: 3}
      propertyPath: m_LocalRotation.w
      value: 1
      objectReference: {fileID: 0}
    - target: {fileID: 400000, guid: 07e8e82d4f8043f48ae7ce23cd30c04b, type: 3}
      propertyPath: m_RootOrder
      value: 0
      objectReference: {fileID: 0}
    - target: {fileID: 400000, guid: 07e8e82d4f8043f48ae7ce23cd30c04b, type: 3}
      propertyPath: m_LocalEulerAnglesHint.x
      value: 0
      objectReference: {fileID: 0}
    - target: {fileID: 400000, guid: 07e8e82d4f8043f48ae7ce23cd30c04b, type: 3}
      propertyPath: m_LocalEulerAnglesHint.y
      value: 0
      objectReference: {fileID: 0}
    - target: {fileID: 400000, guid: 07e8e82d4f8043f48ae7ce23cd30c04b, type: 3}
      propertyPath: m_LocalEulerAnglesHint.z
      value: 0
      objectReference: {fileID: 0}
    - target: {fileID: 400000, guid: 07e8e82d4f8043f48ae7ce23cd30c04b, type: 3}
      propertyPath: m_LocalScale.x
      value: 1
      objectReference: {fileID: 0}
    - target: {fileID: 400000, guid: 07e8e82d4f8043f48ae7ce23cd30c04b, type: 3}
      propertyPath: m_LocalScale.y
      value: 1
      objectReference: {fileID: 0}
    - target: {fileID: 400012, guid: 07e8e82d4f8043f48ae7ce23cd30c04b, type: 3}
      propertyPath: m_LocalPosition.x
      value: 0
      objectReference: {fileID: 0}
    - target: {fileID: 400012, guid: 07e8e82d4f8043f48ae7ce23cd30c04b, type: 3}
      propertyPath: m_LocalPosition.y
      value: 0
      objectReference: {fileID: 0}
    - target: {fileID: 400014, guid: 07e8e82d4f8043f48ae7ce23cd30c04b, type: 3}
      propertyPath: m_LocalPosition.x
      value: 0.6640214
      objectReference: {fileID: 0}
    - target: {fileID: 400014, guid: 07e8e82d4f8043f48ae7ce23cd30c04b, type: 3}
      propertyPath: m_LocalPosition.y
      value: -0.00000001733968
      objectReference: {fileID: 0}
    - target: {fileID: 400016, guid: 07e8e82d4f8043f48ae7ce23cd30c04b, type: 3}
      propertyPath: m_LocalPosition.x
      value: 0.28085175
      objectReference: {fileID: 0}
    - target: {fileID: 400016, guid: 07e8e82d4f8043f48ae7ce23cd30c04b, type: 3}
      propertyPath: m_LocalPosition.y
      value: -0.00000012622216
      objectReference: {fileID: 0}
    - target: {fileID: 400018, guid: 07e8e82d4f8043f48ae7ce23cd30c04b, type: 3}
      propertyPath: m_LocalPosition.x
      value: -0.28288087
      objectReference: {fileID: 0}
    - target: {fileID: 400018, guid: 07e8e82d4f8043f48ae7ce23cd30c04b, type: 3}
      propertyPath: m_LocalPosition.y
      value: 0.14728357
      objectReference: {fileID: 0}
    - target: {fileID: 11400008, guid: 07e8e82d4f8043f48ae7ce23cd30c04b, type: 3}
      propertyPath: m_Bounds.m_Center.x
      value: 0.41481507
      objectReference: {fileID: 0}
    - target: {fileID: 11400008, guid: 07e8e82d4f8043f48ae7ce23cd30c04b, type: 3}
      propertyPath: m_Bounds.m_Center.y
      value: -0.010507107
      objectReference: {fileID: 0}
    - target: {fileID: 11400008, guid: 07e8e82d4f8043f48ae7ce23cd30c04b, type: 3}
      propertyPath: m_Bounds.m_Extent.x
      value: 2.150809
      objectReference: {fileID: 0}
    - target: {fileID: 11400008, guid: 07e8e82d4f8043f48ae7ce23cd30c04b, type: 3}
      propertyPath: m_Bounds.m_Extent.y
      value: 1.5107161
      objectReference: {fileID: 0}
    m_RemovedComponents: []
  m_SourcePrefab: {fileID: 100100000, guid: 07e8e82d4f8043f48ae7ce23cd30c04b, type: 3}
--- !u!1 &7707214271292826019 stripped
GameObject:
  m_CorrespondingSourceObject: {fileID: 100000, guid: 07e8e82d4f8043f48ae7ce23cd30c04b,
    type: 3}
  m_PrefabInstance: {fileID: 7707214271292860163}
  m_PrefabAsset: {fileID: 0}
